﻿{
    "_id": "course",
    "_type": "course",
    "title": "Promosikan Bisnis Anda Dari Halaman Facebook Anda",
    "displayTitle": "Promosikan Bisnis Anda Dari Halaman Facebook Anda ",
    "body": "",
    "_buttons": {
        "_submit": {
            "bugrttonText": "Submit",
            "ariaLabel": "Kirimkan jawaban Anda dengan mengeklik di sini."
        },
        "_reset": {
            "buttonText": "Atur Ulang",
            "ariaLabel": "Atur ulang pertanyaannya dengan mengeklik di sini."
        },
        "_showCorrectAnswer": {
            "buttonText": "Jawaban yang benar",
            "ariaLabel": "Tampilkan jawaban yang benar dengan mengeklik di sini."
        },
        "_hideCorrectAnswer": {
            "buttonText": "Jawaban saya",
            "ariaLabel": "Tampilkan jawaban yang Anda berikan dengan mengeklik di sini."
        },
        "_showFeedback": {
            "buttonText": "Tampilkan masukan",
            "ariaLabel": "Lihat jawaban masukan lagi dengan mengeklik di sini."
        },
        "remainingAttemptsText": "sisa percobaan",
        "remainingAttemptText": "percobaan terakhir",
        "disabledAriaLabel": "Saat ini tombol ini dinonaktifkan."
    },
    "_globals": {
        "_components": {
            "_accordion": {
                "ariaRegion": "Komponen ini merupakan akordeon yang terdiri dari panel konten berisi teks tampilan yang dapat diciutkan. Pilih judul item untuk mengalihkan visibilitas panel konten ini.",
                "instruction": ""
            },
            "_blank": {
                "ariaRegion": "",
                "instruction": ""
            },
            "_gmcq": {
                "ariaRegion": "Komponen ini berupa pertanyaan pilihan ganda dengan gambar. Setelah Anda memilih opsi, pilih tombol kirim di bawah.",
                "instruction": ""
            },
            "_graphic": {
                "ariaRegion": "",
                "instruction": ""
            },
            "_hotGraphic": {
                "ariaRegion": "Di bawah ini adalah komponen yang dapat Anda gunakan untuk memilih bagian terpenting pada suatu gambar. Pilih bagian terpenting untuk memicu jendela sembul yang menyertakan gambar dengan teks tampilan. Pilih tombol tutup untuk menutup jendela sembul.",
                "instruction": ""
            },
            "_matching": {
                "ariaRegion": "Komponen pertanyaan ini mengharuskan Anda memilih jawaban yang sesuai dari daftar menu pilihan di bawah ini. Setelah Anda memilih jawaban, pilih tombol kirim.",
                "instruction": ""
            },
            "_mcq": {
                "ariaRegion": "Komponen ini berupa pertanyaan pilihan ganda. Setelah Anda memilih opsi, pilih tombol kirim di bawah",
                "instruction": ""
            },
            "_media": {
                "ariaRegion": "Ini merupakan komponen media yang memutar video. Pilih tombol putar / jeda untuk menonton atau mendengarkan. Atau Anda dapat memilih tautan di bawah ini untuk mendapatkan transkripnya.",
                "instruction": ""
            },
            "_narrative": {
                "ariaRegion": "Komponen ini menampilkan galeri gambar dengan teks yang menyertainya. Gunakan kontrol navigasi selanjutnya dan kembali untuk membaca narasi.",
                "instruction": ""
            },
            "_slider": {
                "ariaRegion": "Komponen ini mengharuskan Anda menjawab pertanyaan dengan memilih nilai yang relevan. Setelah memilih nilai, pilih tombol kirim di bawah.",
                "instruction": ""
            },
            "_text": {
                "ariaRegion": "",
                "instruction": ""
            },
            "_textInput": {
                "ariaRegion": "Komponen pertanyaan ini mengharuskan Anda untuk memasukkan jawaban di kotak teks yang disediakan. Setelah Anda menjawab pertanyaan, pilih tombol kirim di bawah.",
                "instruction": ""
            }
        },
        "_extensions": {
            "_pageLevelProgress": {
                "pageLevelProgress": "Bagian halaman",
                "pageLevelProgressEnd": "Anda sudah mencapai bagian akhir dari daftar bagian halaman.",
                "pageLevelProgressIndicatorBar": "Bilah kemajuan. Pilih di sini untuk melihat kemajuan Anda saat ini, dan pilih item untuk membukanya. Anda sudah menyelesaikan ",
                "optionalContent": "Konten Opsional"
            }
        },
        "_menu": {
            "_boxmenu": {
                "ariaRegion": "Menu",
                "menuItem": "Item menu.",
                "menuEnd": "Anda sudah mencapai bagian akhir dari menu."
            }
        },
        "_accessibility": {
            "_accessibilityToggleTextOn": "Nyalakan fitur aksesibilitas?",
            "_accessibilityToggleTextOff": "Matikan fitur aksesibilitas?",
            "_accessibilityInstructions": {
                "touch": "Petunjuk penggunaan. Gunakan usapan jari ke kiri untuk membuka selanjutnya. Gunakan usapan jari ke kanan untuk membuka sebelumnya. Ketuk dua kali untuk memilih. Gunakan usapan dua jari ke atas untuk menuju ke bagian atas halaman.",
                "notouch": "Petunjuk penggunaan. Gunakan tab untuk selanjutnya. Gunakan shift tab untuk sebelumnya. Gunakan enter untuk memilih. Gunakan escape untuk menuju ke bagian atas halaman.",
                "ipad": "Petunjuk penggunaan untuk layar sentuh. Gunakan usapan jari ke kiri untuk membuka selanjutnya. Gunakan usapan jari ke kanan untuk membuka sebelumnya. Ketuk dua kali untuk memilih. Gunakan usapan dua jari ke atas untuk menuju ke bagian atas halaman. Instruksi penggunaan untuk akses keyboard. Gunakan kiri untuk selanjutnya. Gunakan kanan untuk sebelumnya. Gunakan atas dan bawah bersamaan untuk memilih."
            },
            "_ariaLabels": {
                "navigation": "Bilah navigasi kursus",
                "menuLoaded": "Menu Dimuat.",
                "menu": "Menu",
                "page": "Halaman",
                "pageLoaded": "Halaman Dimuat.",
                "pageEnd": "Anda sudah mencapai bagian akhir halaman.",
                "previous": "Kembali",
                "navigationBack": "Navigasi kembali",
                "navigationDrawer": "Buka sumber daya kursus.",
                "close": "Tutup",
                "closeDrawer": "Tutup Laci",
                "closeResources": "Tutup sumber daya",
                "resourcesEnd": "Anda sudah mencapai bagian akhir daftar sumber daya.",
                "drawerBack": "Kembali ke laci",
                "drawer": "Bagian atas laci samping",
                "closePopup": "Tutup jendela sembul",
                "next": "Selanjutnya",
                "done": "Selesai",
                "complete": "Selesai",
                "incomplete": "Tidak lengkap",
                "incorrect": "Salah",
                "correct": "Benar",
                "locked": "Dikunci",
                "accessibilityToggleButton": "Dengan memilih tombol ini, Anda dapat menyalakan atau mematikan fitur aksesibilitas",
                "feedbackPopUp": "Jendela sembul dibuka.",
                "menuBack": "Kembali ke menu",
                "visited": "Dikunjungi"
            }
        }
    },
    "_latestTrackingId": 91,
    "_pageLevelProgress": {
        "_isEnabled": true,
        "_altText": "komponen yang diselesaikan di halaman ini."
    },
    "_bookmarking": {
        "_isEnabled": true,
        "_level": "component",
        "title": "Membuat bookmark",
        "body": "Apakah Anda ingin melanjutkan dari tempat Anda berhenti?",
        "_buttons": {
            "yes": "Ya",
            "no": "Tidak"
        }
    },
    "_analytics": {
        "_isEnabled": true
    }
}